{
  "data": [
    {
      "id": "x8vvd3",
      "url": "https://wallhaven.cc/w/x8vvd3",
      "short_url": "https://whvn.cc/x8vvd3",
      "views": 776,
      "favorites": 20,
      "source": "https://www.artstation.com/rutgervds",
      "purity": "sfw",
      "category": "general",
      "dimension_x": 3840,
      "dimension_y": 2352,
      "resolution": "3840x2352",
      "ratio": "1.63",
      "file_size": 1862508,
      "file_type": "image/jpeg",
      "created_at": "2022-08-27 09:15:36",
      "colors": [
        "#424153",
        "#000000",
        "#999999",
        "#663300",
        "#996633"
      ],
      "path": "https://w.wallhaven.cc/full/x8/wallhaven-x8vvd3.jpg",
      "thumbs": {
        "large": "https://th.wallhaven.cc/lg/x8/x8vvd3.jpg",
        "original": "https://th.wallhaven.cc/orig/x8/x8vvd3.jpg",
        "small": "https://th.wallhaven.cc/small/x8/x8vvd3.jpg"
      }
    },
    {
      "id": "5729x8",
      "url": "https://wallhaven.cc/w/5729x8",
      "short_url": "https://whvn.cc/5729x8",
      "views": 1678,
      "favorites": 55,
      "source": "https://www.artstation.com/toivohuhtaniska",
      "purity": "sfw",
      "category": "general",
      "dimension_x": 3840,
      "dimension_y": 1949,
      "resolution": "3840x1949",
      "ratio": "1.97",
      "file_size": 1952580,
      "file_type": "image/jpeg",
      "created_at": "2022-08-24 19:40:13",
      "colors": [
        "#424153",
        "#999999",
        "#000000",
        "#996633",
        "#663300"
      ],
      "path": "https://w.wallhaven.cc/full/57/wallhaven-5729x8.jpg",
      "thumbs": {
        "large": "https://th.wallhaven.cc/lg/57/5729x8.jpg",
        "original": "https://th.wallhaven.cc/orig/57/5729x8.jpg",
        "small": "https://th.wallhaven.cc/small/57/5729x8.jpg"
      }
    },
    {
      "id": "28rw7m",
      "url": "https://wallhaven.cc/w/28rw7m",
      "short_url": "https://whvn.cc/28rw7m",
      "views": 339,
      "favorites": 5,
      "source": "https://www.artstation.com/bast",
      "purity": "sfw",
      "category": "general",
      "dimension_x": 1920,
      "dimension_y": 1079,
      "resolution": "1920x1079",
      "ratio": "1.78",
      "file_size": 867635,
      "file_type": "image/jpeg",
      "created_at": "2022-08-20 12:28:10",
      "colors": [
        "#999999",
        "#e7d8b1",
        "#424153",
        "#ffffff",
        "#cccccc"
      ],
      "path": "https://w.wallhaven.cc/full/28/wallhaven-28rw7m.jpg",
      "thumbs": {
        "large": "https://th.wallhaven.cc/lg/28/28rw7m.jpg",
        "original": "https://th.wallhaven.cc/orig/28/28rw7m.jpg",
        "small": "https://th.wallhaven.cc/small/28/28rw7m.jpg"
      }
    },
    {
      "id": "1k9wvg",
      "url": "https://wallhaven.cc/w/1k9wvg",
      "short_url": "https://whvn.cc/1k9wvg",
      "views": 1240,
      "favorites": 36,
      "source": "https://www.behance.net/VoyagerIllustration",
      "purity": "sfw",
      "category": "general",
      "dimension_x": 2800,
      "dimension_y": 1575,
      "resolution": "2800x1575",
      "ratio": "1.78",
      "file_size": 2316035,
      "file_type": "image/jpeg",
      "created_at": "2022-08-20 11:13:39",
      "colors": [
        "#424153",
        "#333399",
        "#66cccc",
        "#000000",
        "#0099cc"
      ],
      "path": "https://w.wallhaven.cc/full/1k/wallhaven-1k9wvg.jpg",
      "thumbs": {
        "large": "https://th.wallhaven.cc/lg/1k/1k9wvg.jpg",
        "original": "https://th.wallhaven.cc/orig/1k/1k9wvg.jpg",
        "small": "https://th.wallhaven.cc/small/1k/1k9wvg.jpg"
      }
    },
    {
      "id": "m9xv59",
      "url": "https://wallhaven.cc/w/m9xv59",
      "short_url": "https://whvn.cc/m9xv59",
      "views": 1665,
      "favorites": 51,
      "source": "https://www.behance.net/VoyagerIllustration",
      "purity": "sfw",
      "category": "general",
      "dimension_x": 2800,
      "dimension_y": 1575,
      "resolution": "2800x1575",
      "ratio": "1.78",
      "file_size": 1646265,
      "file_type": "image/jpeg",
      "created_at": "2022-08-20 11:13:38",
      "colors": [
        "#abbcda",
        "#424153",
        "#996633",
        "#ffffff",
        "#e7d8b1"
      ],
      "path": "https://w.wallhaven.cc/full/m9/wallhaven-m9xv59.jpg",
      "thumbs": {
        "large": "https://th.wallhaven.cc/lg/m9/m9xv59.jpg",
        "original": "https://th.wallhaven.cc/orig/m9/m9xv59.jpg",
        "small": "https://th.wallhaven.cc/small/m9/m9xv59.jpg"
      }
    },
    {
      "id": "x8v3oz",
      "url": "https://wallhaven.cc/w/x8v3oz",
      "short_url": "https://whvn.cc/x8v3oz",
      "views": 1153,
      "favorites": 33,
      "source": "https://www.behance.net/VoyagerIllustration",
      "purity": "sfw",
      "category": "general",
      "dimension_x": 2800,
      "dimension_y": 1575,
      "resolution": "2800x1575",
      "ratio": "1.78",
      "file_size": 2000769,
      "file_type": "image/jpeg",
      "created_at": "2022-08-20 11:13:38",
      "colors": [
        "#424153",
        "#999999",
        "#000000",
        "#e7d8b1",
        "#663399"
      ],
      "path": "https://w.wallhaven.cc/full/x8/wallhaven-x8v3oz.jpg",
      "thumbs": {
        "large": "https://th.wallhaven.cc/lg/x8/x8v3oz.jpg",
        "original": "https://th.wallhaven.cc/orig/x8/x8v3oz.jpg",
        "small": "https://th.wallhaven.cc/small/x8/x8v3oz.jpg"
      }
    },
    {
      "id": "e7jpg8",
      "url": "https://wallhaven.cc/w/e7jpg8",
      "short_url": "https://whvn.cc/e7jpg8",
      "views": 963,
      "favorites": 32,
      "source": "https://www.behance.net/VoyagerIllustration",
      "purity": "sfw",
      "category": "general",
      "dimension_x": 2800,
      "dimension_y": 1575,
      "resolution": "2800x1575",
      "ratio": "1.78",
      "file_size": 1764725,
      "file_type": "image/jpeg",
      "created_at": "2022-08-20 11:13:38",
      "colors": [
        "#424153",
        "#000000",
        "#996633",
        "#cccc33",
        "#999999"
      ],
      "path": "https://w.wallhaven.cc/full/e7/wallhaven-e7jpg8.jpg",
      "thumbs": {
        "large": "https://th.wallhaven.cc/lg/e7/e7jpg8.jpg",
        "original": "https://th.wallhaven.cc/orig/e7/e7jpg8.jpg",
        "small": "https://th.wallhaven.cc/small/e7/e7jpg8.jpg"
      }
    },
    {
      "id": "q21vkl",
      "url": "https://wallhaven.cc/w/q21vkl",
      "short_url": "https://whvn.cc/q21vkl",
      "views": 2236,
      "favorites": 69,
      "source": "https://www.behance.net/VoyagerIllustration",
      "purity": "sfw",
      "category": "general",
      "dimension_x": 2800,
      "dimension_y": 1575,
      "resolution": "2800x1575",
      "ratio": "1.78",
      "file_size": 2036879,
      "file_type": "image/jpeg",
      "created_at": "2022-08-20 11:13:38",
      "colors": [
        "#999999",
        "#424153",
        "#abbcda",
        "#ffffff",
        "#cccccc"
      ],
      "path": "https://w.wallhaven.cc/full/q2/wallhaven-q21vkl.jpg",
      "thumbs": {
        "large": "https://th.wallhaven.cc/lg/q2/q21vkl.jpg",
        "original": "https://th.wallhaven.cc/orig/q2/q21vkl.jpg",
        "small": "https://th.wallhaven.cc/small/q2/q21vkl.jpg"
      }
    },
    {
      "id": "8ol6vk",
      "url": "https://wallhaven.cc/w/8ol6vk",
      "short_url": "https://whvn.cc/8ol6vk",
      "views": 1079,
      "favorites": 35,
      "source": "https://www.behance.net/VoyagerIllustration",
      "purity": "sfw",
      "category": "general",
      "dimension_x": 2800,
      "dimension_y": 1575,
      "resolution": "2800x1575",
      "ratio": "1.78",
      "file_size": 1750814,
      "file_type": "image/jpeg",
      "created_at": "2022-08-20 11:13:38",
      "colors": [
        "#ffffff",
        "#999999",
        "#abbcda",
        "#cccccc",
        "#66cccc"
      ],
      "path": "https://w.wallhaven.cc/full/8o/wallhaven-8ol6vk.jpg",
      "thumbs": {
        "large": "https://th.wallhaven.cc/lg/8o/8ol6vk.jpg",
        "original": "https://th.wallhaven.cc/orig/8o/8ol6vk.jpg",
        "small": "https://th.wallhaven.cc/small/8o/8ol6vk.jpg"
      }
    },
    {
      "id": "pkqv19",
      "url": "https://wallhaven.cc/w/pkqv19",
      "short_url": "https://whvn.cc/pkqv19",
      "views": 1235,
      "favorites": 35,
      "source": "https://www.behance.net/VoyagerIllustration",
      "purity": "sfw",
      "category": "general",
      "dimension_x": 2800,
      "dimension_y": 1575,
      "resolution": "2800x1575",
      "ratio": "1.78",
      "file_size": 1720928,
      "file_type": "image/jpeg",
      "created_at": "2022-08-20 11:13:22",
      "colors": [
        "#424153",
        "#e7d8b1",
        "#999999",
        "#ffffff",
        "#cc6633"
      ],
      "path": "https://w.wallhaven.cc/full/pk/wallhaven-pkqv19.jpg",
      "thumbs": {
        "large": "https://th.wallhaven.cc/lg/pk/pkqv19.jpg",
        "original": "https://th.wallhaven.cc/orig/pk/pkqv19.jpg",
        "small": "https://th.wallhaven.cc/small/pk/pkqv19.jpg"
      }
    },
    {
      "id": "z8lv3o",
      "url": "https://wallhaven.cc/w/z8lv3o",
      "short_url": "https://whvn.cc/z8lv3o",
      "views": 1353,
      "favorites": 52,
      "source": "https://www.artstation.com/bast",
      "purity": "sfw",
      "category": "general",
      "dimension_x": 2120,
      "dimension_y": 1325,
      "resolution": "2120x1325",
      "ratio": "1.6",
      "file_size": 795820,
      "file_type": "image/jpeg",
      "created_at": "2022-08-18 19:39:54",
      "colors": [
        "#000000",
        "#424153",
        "#999999",
        "#e7d8b1",
        "#996633"
      ],
      "path": "https://w.wallhaven.cc/full/z8/wallhaven-z8lv3o.jpg",
      "thumbs": {
        "large": "https://th.wallhaven.cc/lg/z8/z8lv3o.jpg",
        "original": "https://th.wallhaven.cc/orig/z8/z8lv3o.jpg",
        "small": "https://th.wallhaven.cc/small/z8/z8lv3o.jpg"
      }
    },
    {
      "id": "y8y9o7",
      "url": "https://wallhaven.cc/w/y8y9o7",
      "short_url": "https://whvn.cc/y8y9o7",
      "views": 884,
      "favorites": 22,
      "source": "",
      "purity": "sfw",
      "category": "general",
      "dimension_x": 3840,
      "dimension_y": 1920,
      "resolution": "3840x1920",
      "ratio": "2",
      "file_size": 2053325,
      "file_type": "image/jpeg",
      "created_at": "2022-08-18 02:31:55",
      "colors": [
        "#424153",
        "#996633",
        "#000000",
        "#cccccc",
        "#999999"
      ],
      "path": "https://w.wallhaven.cc/full/y8/wallhaven-y8y9o7.jpg",
      "thumbs": {
        "large": "https://th.wallhaven.cc/lg/y8/y8y9o7.jpg",
        "original": "https://th.wallhaven.cc/orig/y8/y8y9o7.jpg",
        "small": "https://th.wallhaven.cc/small/y8/y8y9o7.jpg"
      }
    },
    {
      "id": "wq26pq",
      "url": "https://wallhaven.cc/w/wq26pq",
      "short_url": "https://whvn.cc/wq26pq",
      "views": 1610,
      "favorites": 37,
      "source": "https://www.artstation.com/artwork/zOnz64",
      "purity": "sfw",
      "category": "general",
      "dimension_x": 1920,
      "dimension_y": 1080,
      "resolution": "1920x1080",
      "ratio": "1.78",
      "file_size": 720712,
      "file_type": "image/jpeg",
      "created_at": "2022-08-14 16:21:47",
      "colors": [
        "#000000",
        "#424153",
        "#999999",
        "#996633",
        "#cccccc"
      ],
      "path": "https://w.wallhaven.cc/full/wq/wallhaven-wq26pq.jpg",
      "thumbs": {
        "large": "https://th.wallhaven.cc/lg/wq/wq26pq.jpg",
        "original": "https://th.wallhaven.cc/orig/wq/wq26pq.jpg",
        "small": "https://th.wallhaven.cc/small/wq/wq26pq.jpg"
      }
    },
    {
      "id": "rdky2q",
      "url": "https://wallhaven.cc/w/rdky2q",
      "short_url": "https://whvn.cc/rdky2q",
      "views": 1035,
      "favorites": 21,
      "source": "",
      "purity": "sfw",
      "category": "general",
      "dimension_x": 2048,
      "dimension_y": 1152,
      "resolution": "2048x1152",
      "ratio": "1.78",
      "file_size": 4316270,
      "file_type": "image/png",
      "created_at": "2022-08-14 01:36:33",
      "colors": [
        "#424153",
        "#e7d8b1",
        "#000000",
        "#999999",
        "#996633"
      ],
      "path": "https://w.wallhaven.cc/full/rd/wallhaven-rdky2q.png",
      "thumbs": {
        "large": "https://th.wallhaven.cc/lg/rd/rdky2q.jpg",
        "original": "https://th.wallhaven.cc/orig/rd/rdky2q.jpg",
        "small": "https://th.wallhaven.cc/small/rd/rdky2q.jpg"
      }
    },
    {
      "id": "e7j9ok",
      "url": "https://wallhaven.cc/w/e7j9ok",
      "short_url": "https://whvn.cc/e7j9ok",
      "views": 1353,
      "favorites": 28,
      "source": "",
      "purity": "sfw",
      "category": "general",
      "dimension_x": 6000,
      "dimension_y": 4000,
      "resolution": "6000x4000",
      "ratio": "1.5",
      "file_size": 2152760,
      "file_type": "image/jpeg",
      "created_at": "2022-08-14 00:50:18",
      "colors": [
        "#000000",
        "#424153",
        "#cccccc",
        "#ffffff",
        "#999999"
      ],
      "path": "https://w.wallhaven.cc/full/e7/wallhaven-e7j9ok.jpg",
      "thumbs": {
        "large": "https://th.wallhaven.cc/lg/e7/e7j9ok.jpg",
        "original": "https://th.wallhaven.cc/orig/e7/e7j9ok.jpg",
        "small": "https://th.wallhaven.cc/small/e7/e7j9ok.jpg"
      }
    },
    {
      "id": "8oleko",
      "url": "https://wallhaven.cc/w/8oleko",
      "short_url": "https://whvn.cc/8oleko",
      "views": 1319,
      "favorites": 37,
      "source": "artstation.com/artwork/g8naLG",
      "purity": "sfw",
      "category": "general",
      "dimension_x": 1920,
      "dimension_y": 1007,
      "resolution": "1920x1007",
      "ratio": "1.91",
      "file_size": 381745,
      "file_type": "image/jpeg",
      "created_at": "2022-08-13 04:17:28",
      "colors": [
        "#424153",
        "#999999",
        "#000000",
        "#e7d8b1",
        "#336600"
      ],
      "path": "https://w.wallhaven.cc/full/8o/wallhaven-8oleko.jpg",
      "thumbs": {
        "large": "https://th.wallhaven.cc/lg/8o/8oleko.jpg",
        "original": "https://th.wallhaven.cc/orig/8o/8oleko.jpg",
        "small": "https://th.wallhaven.cc/small/8o/8oleko.jpg"
      }
    },
    {
      "id": "28ryjm",
      "url": "https://wallhaven.cc/w/28ryjm",
      "short_url": "https://whvn.cc/28ryjm",
      "views": 4226,
      "favorites": 102,
      "source": "",
      "purity": "sfw",
      "category": "general",
      "dimension_x": 3776,
      "dimension_y": 1634,
      "resolution": "3776x1634",
      "ratio": "2.31",
      "file_size": 968777,
      "file_type": "image/jpeg",
      "created_at": "2022-08-11 11:38:26",
      "colors": [
        "#000000",
        "#424153",
        "#663300",
        "#996633",
        "#cc6633"
      ],
      "path": "https://w.wallhaven.cc/full/28/wallhaven-28ryjm.jpg",
      "thumbs": {
        "large": "https://th.wallhaven.cc/lg/28/28ryjm.jpg",
        "original": "https://th.wallhaven.cc/orig/28/28ryjm.jpg",
        "small": "https://th.wallhaven.cc/small/28/28ryjm.jpg"
      }
    },
    {
      "id": "rdkrw1",
      "url": "https://wallhaven.cc/w/rdkrw1",
      "short_url": "https://whvn.cc/rdkrw1",
      "views": 2540,
      "favorites": 58,
      "source": "",
      "purity": "sfw",
      "category": "general",
      "dimension_x": 4096,
      "dimension_y": 2320,
      "resolution": "4096x2320",
      "ratio": "1.77",
      "file_size": 978621,
      "file_type": "image/jpeg",
      "created_at": "2022-08-11 11:38:26",
      "colors": [
        "#000000",
        "#663300",
        "#424153",
        "#cc6633",
        "#996633"
      ],
      "path": "https://w.wallhaven.cc/full/rd/wallhaven-rdkrw1.jpg",
      "thumbs": {
        "large": "https://th.wallhaven.cc/lg/rd/rdkrw1.jpg",
        "original": "https://th.wallhaven.cc/orig/rd/rdkrw1.jpg",
        "small": "https://th.wallhaven.cc/small/rd/rdkrw1.jpg"
      }
    },
    {
      "id": "6ovopl",
      "url": "https://wallhaven.cc/w/6ovopl",
      "short_url": "https://whvn.cc/6ovopl",
      "views": 1267,
      "favorites": 36,
      "source": "",
      "purity": "sfw",
      "category": "general",
      "dimension_x": 1920,
      "dimension_y": 1185,
      "resolution": "1920x1185",
      "ratio": "1.62",
      "file_size": 330342,
      "file_type": "image/jpeg",
      "created_at": "2022-08-10 05:30:27",
      "colors": [
        "#999999",
        "#424153",
        "#e7d8b1",
        "#cccccc",
        "#abbcda"
      ],
      "path": "https://w.wallhaven.cc/full/6o/wallhaven-6ovopl.jpg",
      "thumbs": {
        "large": "https://th.wallhaven.cc/lg/6o/6ovopl.jpg",
        "original": "https://th.wallhaven.cc/orig/6o/6ovopl.jpg",
        "small": "https://th.wallhaven.cc/small/6o/6ovopl.jpg"
      }
    },
    {
      "id": "q212l5",
      "url": "https://wallhaven.cc/w/q212l5",
      "short_url": "https://whvn.cc/q212l5",
      "views": 2738,
      "favorites": 58,
      "source": "",
      "purity": "sfw",
      "category": "general",
      "dimension_x": 3140,
      "dimension_y": 1539,
      "resolution": "3140x1539",
      "ratio": "2.04",
      "file_size": 1129822,
      "file_type": "image/jpeg",
      "created_at": "2022-08-10 02:39:50",
      "colors": [
        "#999999",
        "#424153",
        "#cccccc",
        "#abbcda",
        "#663399"
      ],
      "path": "https://w.wallhaven.cc/full/q2/wallhaven-q212l5.jpg",
      "thumbs": {
        "large": "https://th.wallhaven.cc/lg/q2/q212l5.jpg",
        "original": "https://th.wallhaven.cc/orig/q2/q212l5.jpg",
        "small": "https://th.wallhaven.cc/small/q2/q212l5.jpg"
      }
    },
    {
      "id": "dp19wl",
      "url": "https://wallhaven.cc/w/dp19wl",
      "short_url": "https://whvn.cc/dp19wl",
      "views": 24927,
      "favorites": 435,
      "source": "https://www.artstation.com/sagadesign",
      "purity": "sfw",
      "category": "general",
      "dimension_x": 3840,
      "dimension_y": 2160,
      "resolution": "3840x2160",
      "ratio": "1.78",
      "file_size": 2370545,
      "file_type": "image/jpeg",
      "created_at": "2022-08-06 16:34:04",
      "colors": [
        "#424153",
        "#000000",
        "#999999",
        "#abbcda",
        "#77cc33"
      ],
      "path": "https://w.wallhaven.cc/full/dp/wallhaven-dp19wl.jpg",
      "thumbs": {
        "large": "https://th.wallhaven.cc/lg/dp/dp19wl.jpg",
        "original": "https://th.wallhaven.cc/orig/dp/dp19wl.jpg",
        "small": "https://th.wallhaven.cc/small/dp/dp19wl.jpg"
      }
    },
    {
      "id": "3zmde3",
      "url": "https://wallhaven.cc/w/3zmde3",
      "short_url": "https://whvn.cc/3zmde3",
      "views": 3112,
      "favorites": 69,
      "source": "https://www.artstation.com/bast",
      "purity": "sfw",
      "category": "general",
      "dimension_x": 2120,
      "dimension_y": 1192,
      "resolution": "2120x1192",
      "ratio": "1.78",
      "file_size": 1094901,
      "file_type": "image/jpeg",
      "created_at": "2022-08-06 07:43:19",
      "colors": [
        "#424153",
        "#999999",
        "#000000",
        "#cccccc",
        "#e7d8b1"
      ],
      "path": "https://w.wallhaven.cc/full/3z/wallhaven-3zmde3.jpg",
      "thumbs": {
        "large": "https://th.wallhaven.cc/lg/3z/3zmde3.jpg",
        "original": "https://th.wallhaven.cc/orig/3z/3zmde3.jpg",
        "small": "https://th.wallhaven.cc/small/3z/3zmde3.jpg"
      }
    },
    {
      "id": "57e285",
      "url": "https://wallhaven.cc/w/57e285",
      "short_url": "https://whvn.cc/57e285",
      "views": 1575,
      "favorites": 33,
      "source": "https://www.artstation.com/bast",
      "purity": "sfw",
      "category": "general",
      "dimension_x": 2240,
      "dimension_y": 1257,
      "resolution": "2240x1257",
      "ratio": "1.78",
      "file_size": 1300273,
      "file_type": "image/jpeg",
      "created_at": "2022-08-06 07:43:19",
      "colors": [
        "#663399",
        "#abbcda",
        "#333399",
        "#cccccc",
        "#ffffff"
      ],
      "path": "https://w.wallhaven.cc/full/57/wallhaven-57e285.jpg",
      "thumbs": {
        "large": "https://th.wallhaven.cc/lg/57/57e285.jpg",
        "original": "https://th.wallhaven.cc/orig/57/57e285.jpg",
        "small": "https://th.wallhaven.cc/small/57/57e285.jpg"
      }
    },
    {
      "id": "e7kko8",
      "url": "https://wallhaven.cc/w/e7kko8",
      "short_url": "https://whvn.cc/e7kko8",
      "views": 2359,
      "favorites": 69,
      "source": "https://www.artstation.com/artwork/v2nRBY",
      "purity": "sfw",
      "category": "anime",
      "dimension_x": 1920,
      "dimension_y": 1101,
      "resolution": "1920x1101",
      "ratio": "1.74",
      "file_size": 636238,
      "file_type": "image/jpeg",
      "created_at": "2022-08-04 23:33:20",
      "colors": [
        "#66cccc",
        "#abbcda",
        "#999999",
        "#0099cc",
        "#424153"
      ],
      "path": "https://w.wallhaven.cc/full/e7/wallhaven-e7kko8.jpg",
      "thumbs": {
        "large": "https://th.wallhaven.cc/lg/e7/e7kko8.jpg",
        "original": "https://th.wallhaven.cc/orig/e7/e7kko8.jpg",
        "small": "https://th.wallhaven.cc/small/e7/e7kko8.jpg"
      }
    }
  ],
  "meta": {
    "current_page": 1,
    "last_page": 84,
    "per_page": 24,
    "total": 2008,
    "query": "fantasy landscape",
    "seed": null
  }
}
